ex5/fsm_tb.vcd
$date
	Sat Jun  8 16:01:36 2024
$end

$version
	Synopsys VCS version U-2023.03-SP2_Full64
$end

$timescale
	1ns
$end

$comment Csum: 1 b7c3f1198c526c01 $end


$scope module fsm_tb $end
$var reg 1 ! clk $end
$var reg 1 " reset $end
$var reg 1 # btn_up $end
$var reg 1 $ btn_down $end
$var reg 1 % btn_left $end
$var reg 1 & btn_right $end
$var reg 1 ' btn_A $end
$var reg 1 ( btn_B $end
$var reg 1 ) btn_start $end
$var reg 1 * show_pre_game_screen $end
$var reg 1 + show_won_game_screen $end
$var reg 1 , show_lost_game_screen $end
$var reg 5 - player_pos_x [4:0] $end
$var reg 4 . player_pos_y [3:0] $end
$var reg 1 / write_enable $end
$var reg 5 0 write_x [4:0] $end
$var reg 4 1 write_y [3:0] $end
$var reg 2 2 write_data [1:0] $end

$scope begin unnamed$$_0 $end

$scope begin unnamed$$_1 $end
$upscope $end

$upscope $end


$scope module fsm_inst $end
$var reg 1 ! clk $end
$var reg 1 " reset $end
$var reg 1 # btn_up $end
$var reg 1 $ btn_down $end
$var reg 1 % btn_left $end
$var reg 1 & btn_right $end
$var reg 1 ' btn_A $end
$var reg 1 ( btn_B $end
$var reg 1 ) btn_start $end
$var reg 1 * show_pre_game_screen $end
$var reg 1 + show_won_game_screen $end
$var reg 1 , show_lost_game_screen $end
$var reg 5 - player_pos_x [4:0] $end
$var reg 4 . player_pos_y [3:0] $end
$var reg 1 / write_enable $end
$var reg 5 0 write_x [4:0] $end
$var reg 4 1 write_y [3:0] $end
$var reg 2 2 write_data [1:0] $end
$var reg 2 3 game_state [1:0] $end
$var reg 2 4 next_game_state [1:0] $end
$var reg 5 5 next_player_pos_x [4:0] $end
$var reg 4 6 next_player_pos_y [3:0] $end
$var reg 1 7 position_ok $end
$var reg 1 8 debug_active $end
$var reg 5 9 debug_pos_x [4:0] $end
$var reg 4 : debug_pos_y [3:0] $end

$scope module pos_checker $end
$var wire 1 ! clk $end
$var wire 1 " reset $end
$var reg 5 5 x [4:0] $end
$var reg 4 6 y [3:0] $end
$var reg 1 ' btn_A $end
$var reg 1 ( btn_B $end
$var reg 1 / write_enable $end
$var reg 5 0 write_x [4:0] $end
$var reg 4 1 write_y [3:0] $end
$var reg 2 2 write_data [1:0] $end
$var reg 1 7 position_ok $end
$var reg 2 ; terrain_value [1:0] $end
$upscope $end

$upscope $end

$upscope $end

$enddefinitions $end

#0
$dumpvars
0'
0(
0$
0%
0&
0)
0#
0!
08
07
1"
0,
1*
0+
0/
b00000 9
b0000 :
b00 3
b00 4
b00000 5
b0000 6
b00000 -
b0000 .
bxx ;
b00 2
b00000 0
b0000 1
$end
#5
1!
#10
0!
1/
#15
1!
17
b00 ;
#20
0!
b0001 1
b11 2
#25
1!
#30
0!
b0010 1
#35
1!
#40
0!
b0011 1
#45
1!
#50
0!
b0100 1
#55
1!
#60
0!
b0101 1
#65
1!
#70
0!
b0110 1
#75
1!
#80
0!
b0111 1
#85
1!
#90
0!
b1000 1
#95
1!
#100
0!
b1001 1
#105
1!
#110
0!
b1010 1
#115
1!
#120
0!
b1011 1
#125
1!
#130
0!
b1100 1
#135
1!
#140
0!
b1101 1
#145
1!
#150
0!
b1110 1
#155
1!
#160
0!
b1111 1
#165
1!
#170
0!
b00001 0
b0000 1
b00 2
#175
1!
#180
0!
b0001 1
#185
1!
#190
0!
b0010 1
b01 2
#195
1!
#200
0!
b0011 1
#205
1!
#210
0!
b0100 1
b11 2
#215
1!
#220
0!
b0101 1
#225
1!
#230
0!
b0110 1
#235
1!
#240
0!
b0111 1
#245
1!
#250
0!
b1000 1
b10 2
#255
1!
#260
0!
b1001 1
#265
1!
#270
0!
b1010 1
b00 2
#275
1!
#280
0!
b1011 1
b11 2
#285
1!
#290
0!
b1100 1
#295
1!
#300
0!
b1101 1
#305
1!
#310
0!
b1110 1
#315
1!
#320
0!
b1111 1
#325
1!
#330
0!
b00010 0
b0000 1
#335
1!
#340
0!
b0001 1
#345
1!
#350
0!
b0010 1
#355
1!
#360
0!
b0011 1
b01 2
#365
1!
#370
0!
b0100 1
b11 2
#375
1!
#380
0!
b0101 1
#385
1!
#390
0!
b0110 1
b00 2
#395
1!
#400
0!
b0111 1
#405
1!
#410
0!
b1000 1
b10 2
#415
1!
#420
0!
b1001 1
b11 2
#425
1!
#430
0!
b1010 1
b00 2
#435
1!
#440
0!
b1011 1
b11 2
#445
1!
#450
0!
b1100 1
#455
1!
#460
0!
b1101 1
#465
1!
#470
0!
b1110 1
#475
1!
#480
0!
b1111 1
#485
1!
#490
0!
b00011 0
b0000 1
#495
1!
#500
0!
b0001 1
b00 2
#505
1!
#510
0!
b0010 1
#515
1!
#520
0!
b0011 1
b01 2
#525
1!
#530
0!
b0100 1
b11 2
#535
1!
#540
0!
b0101 1
#545
1!
#550
0!
b0110 1
b00 2
#555
1!
#560
0!
b0111 1
b11 2
#565
1!
#570
0!
b1000 1
b10 2
#575
1!
#580
0!
b1001 1
b11 2
#585
1!
#590
0!
b1010 1
b00 2
#595
1!
#600
0!
b1011 1
#605
1!
#610
0!
b1100 1
#615
1!
#620
0!
b1101 1
#625
1!
#630
0!
b1110 1
b11 2
#635
1!
#640
0!
b1111 1
#645
1!
#650
0!
b00100 0
b0000 1
#655
1!
#660
0!
b0001 1
#665
1!
#670
0!
b0010 1
b00 2
#675
1!
#680
0!
b0011 1
b11 2
#685
1!
#690
0!
b0100 1
#695
1!
#700
0!
b0101 1
#705
1!
#710
0!
b0110 1
b00 2
#715
1!
#720
0!
b0111 1
b11 2
#725
1!
#730
0!
b1000 1
#735
1!
#740
0!
b1001 1
#745
1!
#750
0!
b1010 1
#755
1!
#760
0!
b1011 1
#765
1!
#770
0!
b1100 1
#775
1!
#780
0!
b1101 1
b00 2
#785
1!
#790
0!
b1110 1
b11 2
#795
1!
#800
0!
b1111 1
#805
1!
#810
0!
b00101 0
b0000 1
#815
1!
#820
0!
b0001 1
#825
1!
#830
0!
b0010 1
b00 2
#835
1!
#840
0!
b0011 1
#845
1!
#850
0!
b0100 1
#855
1!
#860
0!
b0101 1
#865
1!
#870
0!
b0110 1
#875
1!
#880
0!
b0111 1
#885
1!
#890
0!
b1000 1
b11 2
#895
1!
#900
0!
b1001 1
#905
1!
#910
0!
b1010 1
#915
1!
#920
0!
b1011 1
#925
1!
#930
0!
b1100 1
b00 2
#935
1!
#940
0!
b1101 1
#945
1!
#950
0!
b1110 1
b11 2
#955
1!
#960
0!
b1111 1
#965
1!
#970
0!
b00110 0
b0000 1
#975
1!
#980
0!
b0001 1
#985
1!
#990
0!
b0010 1
#995
1!
#1000
0!
b0011 1
#1005
1!
#1010
0!
b0100 1
#1015
1!
#1020
0!
b0101 1
#1025
1!
#1030
0!
b0110 1
#1035
1!
#1040
0!
b0111 1
b00 2
#1045
1!
#1050
0!
b1000 1
b11 2
#1055
1!
#1060
0!
b1001 1
#1065
1!
#1070
0!
b1010 1
#1075
1!
#1080
0!
b1011 1
#1085
1!
#1090
0!
b1100 1
#1095
1!
#1100
0!
b1101 1
b00 2
#1105
1!
#1110
0!
b1110 1
b11 2
#1115
1!
#1120
0!
b1111 1
#1125
1!
#1130
0!
b00111 0
b0000 1
#1135
1!
#1140
0!
b0001 1
#1145
1!
#1150
0!
b0010 1
#1155
1!
#1160
0!
b0011 1
#1165
1!
#1170
0!
b0100 1
#1175
1!
#1180
0!
b0101 1
#1185
1!
#1190
0!
b0110 1
#1195
1!
#1200
0!
b0111 1
b00 2
#1205
1!
#1210
0!
b1000 1
b11 2
#1215
1!
#1220
0!
b1001 1
#1225
1!
#1230
0!
b1010 1
#1235
1!
#1240
0!
b1011 1
#1245
1!
#1250
0!
b1100 1
#1255
1!
#1260
0!
b1101 1
b00 2
#1265
1!
#1270
0!
b1110 1
#1275
1!
#1280
0!
b1111 1
#1285
1!
#1290
0!
b01000 0
b0000 1
b11 2
#1295
1!
#1300
0!
b0001 1
#1305
1!
#1310
0!
b0010 1
#1315
1!
#1320
0!
b0011 1
#1325
1!
#1330
0!
b0100 1
#1335
1!
#1340
0!
b0101 1
#1345
1!
#1350
0!
b0110 1
#1355
1!
#1360
0!
b0111 1
b00 2
#1365
1!
#1370
0!
b1000 1
b11 2
#1375
1!
#1380
0!
b1001 1
#1385
1!
#1390
0!
b1010 1
#1395
1!
#1400
0!
b1011 1
#1405
1!
#1410
0!
b1100 1
#1415
1!
#1420
0!
b1101 1
#1425
1!
#1430
0!
b1110 1
#1435
1!
#1440
0!
b1111 1
b00 2
#1445
1!
#1450
0!
b01001 0
b0000 1
b11 2
#1455
1!
#1460
0!
b0001 1
#1465
1!
#1470
0!
b0010 1
#1475
1!
#1480
0!
b0011 1
#1485
1!
#1490
0!
b0100 1
#1495
1!
#1500
0!
b0101 1
#1505
1!
#1510
0!
b0110 1
#1515
1!
#1520
0!
b0111 1
b00 2
#1525
1!
#1530
0!
b1000 1
b11 2
#1535
1!
#1540
0!
b1001 1
#1545
1!
#1550
0!
b1010 1
#1555
1!
#1560
0!
b1011 1
#1565
1!
#1570
0!
b1100 1
#1575
1!
#1580
0!
b1101 1
#1585
1!
#1590
0!
b1110 1
#1595
1!
#1600
0!
b1111 1
b00 2
#1605
1!
#1610
0!
b01010 0
b0000 1
b11 2
#1615
1!
#1620
0!
b0001 1
#1625
1!
#1630
0!
b0010 1
#1635
1!
#1640
0!
b0011 1
#1645
1!
#1650
0!
b0100 1
#1655
1!
#1660
0!
b0101 1
#1665
1!
#1670
0!
b0110 1
#1675
1!
#1680
0!
b0111 1
b00 2
#1685
1!
#1690
0!
b1000 1
#1695
1!
#1700
0!
b1001 1
#1705
1!
#1710
0!
b1010 1
#1715
1!
#1720
0!
b1011 1
#1725
1!
#1730
0!
b1100 1
#1735
1!
#1740
0!
b1101 1
#1745
1!
#1750
0!
b1110 1
#1755
1!
#1760
0!
b1111 1
#1765
1!
#1770
0!
b01011 0
b0000 1
b11 2
#1775
1!
#1780
0!
b0001 1
#1785
1!
#1790
0!
b0010 1
#1795
1!
#1800
0!
b0011 1
#1805
1!
#1810
0!
b0100 1
#1815
1!
#1820
0!
b0101 1
#1825
1!
#1830
0!
b0110 1
#1835
1!
#1840
0!
b0111 1
#1845
1!
#1850
0!
b1000 1
#1855
1!
#1860
0!
b1001 1
#1865
1!
#1870
0!
b1010 1
#1875
1!
#1880
0!
b1011 1
#1885
1!
#1890
0!
b1100 1
#1895
1!
#1900
0!
b1101 1
#1905
1!
#1910
0!
b1110 1
#1915
1!
#1920
0!
b1111 1
b00 2
#1925
1!
#1930
0!
b01100 0
b0000 1
b11 2
#1935
1!
#1940
0!
b0001 1
#1945
1!
#1950
0!
b0010 1
#1955
1!
#1960
0!
b0011 1
#1965
1!
#1970
0!
b0100 1
#1975
1!
#1980
0!
b0101 1
#1985
1!
#1990
0!
b0110 1
#1995
1!
#2000
0!
b0111 1
#2005
1!
#2010
0!
b1000 1
#2015
1!
#2020
0!
b1001 1
#2025
1!
#2030
0!
b1010 1
#2035
1!
#2040
0!
b1011 1
#2045
1!
#2050
0!
b1100 1
#2055
1!
#2060
0!
b1101 1
#2065
1!
#2070
0!
b1110 1
b00 2
#2075
1!
#2080
0!
b1111 1
#2085
1!
#2090
0!
b01101 0
b0000 1
b11 2
#2095
1!
#2100
0!
b0001 1
#2105
1!
#2110
0!
b0010 1
#2115
1!
#2120
0!
b0011 1
#2125
1!
#2130
0!
b0100 1
#2135
1!
#2140
0!
b0101 1
#2145
1!
#2150
0!
b0110 1
#2155
1!
#2160
0!
b0111 1
#2165
1!
#2170
0!
b1000 1
#2175
1!
#2180
0!
b1001 1
#2185
1!
#2190
0!
b1010 1
#2195
1!
#2200
0!
b1011 1
#2205
1!
#2210
0!
b1100 1
#2215
1!
#2220
0!
b1101 1
#2225
1!
#2230
0!
b1110 1
#2235
1!
#2240
0!
b1111 1
b00 2
#2245
1!
#2250
0!
b01110 0
b0000 1
b11 2
#2255
1!
#2260
0!
b0001 1
#2265
1!
#2270
0!
b0010 1
#2275
1!
#2280
0!
b0011 1
#2285
1!
#2290
0!
b0100 1
#2295
1!
#2300
0!
b0101 1
#2305
1!
#2310
0!
b0110 1
#2315
1!
#2320
0!
b0111 1
#2325
1!
#2330
0!
b1000 1
#2335
1!
#2340
0!
b1001 1
#2345
1!
#2350
0!
b1010 1
#2355
1!
#2360
0!
b1011 1
#2365
1!
#2370
0!
b1100 1
#2375
1!
#2380
0!
b1101 1
#2385
1!
#2390
0!
b1110 1
#2395
1!
#2400
0!
b1111 1
b00 2
#2405
1!
#2410
0!
0/
